<svg width="1440" height="300" viewBox="0 0 1440 300" fill="none" xmlns="http://www.w3.org/2000/svg">
<rect x="0.5" y="0.5" width="1439" height="299" fill="#244B11"/>
<rect x="0.5" y="0.5" width="1439" height="299" fill="url(#paint0_linear)"/>
<rect x="0.5" y="0.5" width="1439" height="299" stroke="#244B11"/>
<defs>
<linearGradient id="paint0_linear" x1="542.5" y1="83.7734" x2="1659.31" y2="640.698" gradientUnits="userSpaceOnUse">
<stop stop-color="#192F0F"/>
<stop offset="1" stop-color="#26570D" stop-opacity="0"/>
</linearGradient>
</defs>
</svg>
